Pràtica 2 Xavier
…
df.mun = municipis_data 
df.mun = df.mun %>%
  select(id,
         pop = f321,
         ss = f363, 
         atur = f308, 
         bibl = f270, 
         sport=f300, 
         reciclar=f368,
         residus=f366) %>%
  left_join(municipis,by = 'id') %>%
  left_join(parlament, by = 'id')
df.mun

## # A tibble: 947 x 21
##    id      pop    ss  atur  bibl sport reciclar residus nom   comarca
##    <chr> <dbl> <dbl> <dbl> <dbl> <dbl>    <dbl>   <dbl> <chr> <chr>  
##  1 0800… 12334  5735 564.      1    67     20.8    1.14 Abre… Baix L…
##  2 0800…   277   135  10.2     0    19     40.7    1.32 Agui… Bages  
##  3 0800…  9764  4241 258.      1   129     49.2    1.58 Alel… Maresme
##  4 0800…   273   137   8.2     0     5     49.4    1.2  Alpe… Osona  
##  5 0800…  8496  4069 274.      1    66     42.9    1.49 Amet… Vallès…
##  6 0800… 15533  6538 764.      1   141     47.1    1.37 Aren… Maresme
##  7 0800…  8838  3943 434.      1    54     51.7    1.39 Aren… Maresme
##  8 0800…   219   109   6.5     0     0     28.3    1.29 Arge… Anoia  
##  9 0800… 12295  5532 570.      1    85     63.8    1.49 Arge… Maresme
## 10 0801…  5648  2590 252.      1    35     79.6    1    Artés Bages  
## # … with 937 more rows, and 11 more variables: provincia <chr>,
## #   delegacio_govern <chr>, mun <chr>, cs <int>, cup <int>, erc <int>,
## #   jxcat <int>, podem <int>, pp <int>, psc <int>, otros <int>

# Creem una taula amb les variables de municipis_data on hi farem els càlculs per tenir valors relatius a la població, també hi afegim els vots per partit i en calculem el pes relatiu al total de vots de cada municipi

# ...també creem dues variables noves que agrupen els `partits` segons ideologia política vers la independència del territori
df.munvar <-
  select(df.mun, id, nom, comarca, provincia, ss:residus,cs:otros) %>%
  mutate_if(is.double, funs(./df.mun$pop)) %>% #variables relatives a la població
  mutate(total = cs + cup + erc + jxcat + podem + pp + psc + otros) %>%
  mutate_if(is.integer, funs(./total)) %>% #variables relatives a la població i al pes de cada partit segons vots obtinguts
  mutate(unionistes = cs + pp + psc) %>% 
  mutate(indepes = erc + jxcat + cup) %>%
  select(-total)
df.munvar

## # A tibble: 947 x 20
##    id    nom   comarca provincia    ss   atur    bibl   sport reciclar
##    <chr> <chr> <chr>   <chr>     <dbl>  <dbl>   <dbl>   <dbl>    <dbl>
##  1 0800… Abre… Baix L… Barcelona 0.465 0.0457 8.11e-5 0.00543  0.00169
##  2 0800… Agui… Bages   Barcelona 0.487 0.0368 0.      0.0686   0.147  
##  3 0800… Alel… Maresme Barcelona 0.434 0.0265 1.02e-4 0.0132   0.00504
##  4 0800… Alpe… Osona   Barcelona 0.502 0.0300 0.      0.0183   0.181  
##  5 0800… Amet… Vallès… Barcelona 0.479 0.0323 1.18e-4 0.00777  0.00505
##  6 0800… Aren… Maresme Barcelona 0.421 0.0492 6.44e-5 0.00908  0.00303
##  7 0800… Aren… Maresme Barcelona 0.446 0.0491 1.13e-4 0.00611  0.00585
##  8 0800… Arge… Anoia   Barcelona 0.498 0.0297 0.      0        0.129  
##  9 0800… Arge… Maresme Barcelona 0.450 0.0463 8.13e-5 0.00691  0.00519
## 10 0801… Artés Bages   Barcelona 0.459 0.0447 1.77e-4 0.00620  0.0141 
## # … with 937 more rows, and 11 more variables: residus <dbl>, cs <dbl>,
## #   cup <dbl>, erc <dbl>, jxcat <dbl>, podem <dbl>, pp <dbl>, psc <dbl>,
## #   otros <dbl>, unionistes <dbl>, indepes <dbl>
…
grafic = select(df.munvar, ss:residus, unionistes, indepes) %>%
  gather(var, pes, ss:residus) %>%
  mutate(unionistes = unionistes*pes) %>% mutate(indepes = indepes * pes) 
grafic

## # A tibble: 5,682 x 4
##    unionistes indepes var     pes
##         <dbl>   <dbl> <chr> <dbl>
##  1     0.268    0.138 ss    0.465
##  2     0.0632   0.422 ss    0.487
##  3     0.149    0.257 ss    0.434
##  4     0.0208   0.465 ss    0.502
##  5     0.142    0.309 ss    0.479
##  6     0.129    0.269 ss    0.421
##  7     0.0999   0.321 ss    0.446
##  8     0.0567   0.425 ss    0.498
##  9     0.158    0.263 ss    0.450
## 10     0.120    0.318 ss    0.459
## # … with 5,672 more rows
…
